tmp36.c:24:6:TMP_36_sleep	16	static
tmp36.c:32:10:cacl_av_adc_val	24	static
tmp36.c:46:6:TMP_36_process_temperatur_value	40	static
tmp36.c:70:6:TMP_36_save_val_to_buff	16	static
tmp36.c:89:6:HAL_ADC_ConvCpltCallback	32	static
tmp36.c:107:6:TMP_36_proccess	8	static
tmp36.c:117:6:TMP_36_get_data_from_buffer	24	static
tmp36.c:124:9:TMP_36_get_temperature	16	static
